name,type,cost
1L13 Nebo,ewr,1000000.00
3M9M,missile,5000.00
55G6 Nebo,ewr,1000000.00
5V27,missile,5000.00
9K121 Vikhr,missile,28300.00
9M113 Konkurs,missile,13000.00
9M31,missile,5000.00
SA5B27,missile,5000000.00
SA5V28,missile,5000000.00
SA9M31,missile,5000.00
9M33,missile,40000.00
9M330,missile,40000.00
9M38M1,missile,23000.00
A-4E Skyhawk,aircraft,860000.00
A-10A Thunderbolt II,aircraft,26300000.00
A-10C Thunderbolt II,aircraft,46300000.00
A-50 Mainstay,aircraft,250000000.00
ADM-141A TALD,decoy,24000.00
AGM_45A,missile,7000.00
AGM_62,missile,10000.00
AGM-65 Maverick,missile,110000.00
AGM-65D Maverick,missile,110000.00
AGM-65E Maverick,missile,110000.00
AGM-65F Maverick,missile,110000.00
AGM-88 HARM,missile,284000.00
AGM-122 Sidearm,missile,181276.14
AGR_20_M282,rocket,20000.00
AIM-120 AMRAAM,missile,400000.00
AIM-120C AMRAAM,missile,400000.00
AGM_154A,bomb,282000.00
AGM_154,bomb,282000.00
AIM-54A Phoenix,missile,477131.00
AIM-54C Phoenix,missile,477131.00
AIM-7 Sparrow,missile,125000.00
AIM-7M Sparrow III,missile,125000.00
AIM-9 Sidewinder,missile,181276.14
AIM-9L Sidewinder,missile,181276.14
AIM-9M Sidewinder,missile,181276.14
AIM-9X Sidewinder,missile,660077.50
AJS 37 Viggen,aircraft,15582574.85
AN/TWQ-1 Avenger,ads,100000.00
AH-64D Apache Longbow,helo,13000000.00
AT-6 Spiral (9K114),rocket,30000.00
Ataka_9M120,rocket,50000.00
ATZ-5,truck,28000.00
ATZ-10,truck,30000.00
ATZ-60_Maz,truck,20000.00
AV-8B Harrier II NA,aircraft,39758011.47
Bedford_MWD,vehicle,15000.00
BetAB_500,bomb,4048.46
BGM-71D TOW-2,missile,54956.00
BLU-97/B,bomb,0.00
BMD-1,vehicle,10000.00
BMP-1,vehicle,255556.00
BMP-2,vehicle,555556.00
BMP-3,vehicle,796000.00
Bofors 40,aaa,25000.00
BRDM-2,vehicle,38000.00
BTR-80,vehicle,663158.00
BTR_D,vehicle,500000.00
Bomb,bomb,3000.00
BRU-42_LS,utility,10000.00
C-130 Hercules,aircraft,13000000.00
C-17A Globemaster III,aircraft,272419567.67
C-802AK,missile,1400000.00
CVN-71 Theodore Roosevelt,carrier,8500000000.00
CVN-72 Abraham Lincoln,carrier,8500000000.00
CBU-99,bomb,3100.00
CBU-99 Cluster,bomb,1000.00
CG-47 Ticonderoga,ship,1000000000.00
Cobra,vehicle,600000.00
E-2C Hawkeye,aircraft,72000000.00
E-3A Sentry,aircraft,270000000.00
F-4E Phantom II,aircraft,17925379.31
F-5E-3 Tiger II,aircraft,8381608.90
F-14A Tomcat,aircraft,82091405.94
F-14B Tomcat,aircraft,82091405.94
F-15C Eagle,aircraft,47744613.50
F-15E Strike Eagle,aircraft,49591716.56
F-16C Fighting Falcon,aircraft,29884041.72
F-16C-52 Fighting Falcon,aircraft,29884041.72
F/A-18C Hornet,aircraft,66000000.00
FAB-100,bomb,3000.00
FAB-500,bomb,3048.46
FAB-500 Bomblets,bomblet,0.00
FARP,airfield,0.00
FIM-92 Stinger,missile,38000.00
FIM-92C Stinger,missile,38000.00
FFAR Mk1,rocket,2799.00
FFAR Mk5 HEAT,rocket,2799.00
Flak 18,aaa,25000.00
GAZ-3307,vehicle,30000.00
GAZ-3308,vehicle,30000.00
GAZ-66,vehicle,14000.00
GBU-12 Paveway II,bomb,21896.00
GBU_31_V_3B,bomb,42200.00
GBU_31_V_2B,bomb,42200.00
GBU_32_V_2B,bomb,38000.00
GBU-38 JDAM,bomb,35000.00
Gepard,ship,350000000.00
Grad_FDDM,artillery,2300000.00
HAWK_RAKETA,unknown,0.00
HEMTT TFFT,truck,135000.00
house2arm,house,300000.00
Humvee,vehicle,254565.02
hy_launcher,antiship,40000.00
Hydra 70 Mk5,rocket,2799.00
Igla manpad INS,ads,500.00
Igla-1E (SA-18),ads,54347.48
IKARUS Bus,vehicle,15000.00
Il-76MD Candid,aircraft,5000000.00
Il-78 Midas,aircraft,62947236.81
JF-17 Thunder,aircraft,26540979.33
Ka-27,helo,1500000.00
Ka-50 Black Shark,helo,18513819.30
X_58,missile,250000.00
KAB_500Kr,bomb,274354.00
Kamaz,vehicle,30000.00
KC-135 Stratotanker,aircraft,63145722.70
Kh-29 Kedge,missile,110000.00
Kh-29L Kedge-A,missile,110000.00
KrAZ6322,vehicle,45000.00
Land_Rover_101_FC,vehicle,40000.00
Land_Rover_109_S3,vehicle,40000.00
LAZ Bus,vehicle,15000.00
M 818,truck,14000.00
M1 Abrams,tank,8920000.00
M-60,troop,6000.00
M-113,apc,300000.00
M26,rocket, 2799.00
M77 submunitions,submunition, 0.00
M151 (HE),rocket,2799.00
M156 (WP),rocket,2799.00
M163 Vulcan,ads,546684.76
M978 HEMTT Tanker,truck,135000.00
M1126 Stryker ICV,apc,5668266.59
M1128 Stryker MGS,vehicle,5668266.59
MALUTKA,missile,12500.00
Mark 82,bomb,3048.46
Mk-82 Snakeye,bomb,3200.00
Mark 84,bomb,3100.00
MAZ-6303,truck,30000.00
Merkava_Mk4,tank,3500000.00
Mi-8MT Hip,helo,18400000.00
Mi-24V Hind-E,helo,12000000.00
Mi-24P Hind-F,helo,12000000.00
Mi-26,helo,25000000.00
MiG-21bis Fishbed-L/N,aircraft,10511196.75
MiG-23MLD Flogger-K,aircraft,20753235.44
MiG-25PD Foxbat-E,aircraft,30000000.00
MiG-29 Fulcrum,aircraft,17107509.00
MiG-29A Fulcrum-A,aircraft,17107509.00
MiG-29S Fulcrum-C,aircraft,24546143.71
MiG-31 Foxhound,aircraft,33200000.00
MIM-23 Hawk (M192 LN),ads,15000000.00
MIM-23 Hawk (CWAR SR),ads,8000000.00
MIM-23 Hawk (AN/MPQ-50 SR),ads,8000000.00
MIM-23 Hawk (AN/MPQ-46 TR),ads,8000000.00
MIM-23 Hawk (PCP CT),ads,2000000.00
MIM-23B,missile,250000.00
MIM-72 Chaparral,ads,1500000.00
MIM-104 Patriot (M901 LN),ads,1000000.00
MIM-104 Patriot (AN/MPQ-53 STR),ads,1000000.00
MIM-104 Patriot (EPP),ads,50000.00
MIM-104 Patriot (ECS),ads,100000.00
Patriot AMG,ads,100000.00
MIM-104 Patriot (AN/MSQ-104),ads,1000000.00
MIM_104,missile,2500000.00
Mirage 2000C,aircraft,30600000.00
Mk-32 Zuni,rocket,3100.00
MLRS,vehicle,2300000.00
MQ-9 Reaper,uav,18882162.80
Neustrashimyy,ship,120000000.00
outpost,building,500000.00
outpost_road,building,0.00
P_73,missile,181276.14
P_24R,missile,125000.00
P_27TE,missile,128000.00
P_27PE,missile,128000.00
P_60,missile,101560.03
P_77,missile,181729.48
Parachutist,human,10.00
Paratrooper RPG-16,human,4710.00
Paratrooper AKS-74,human,410.00
Pilot,human,10.00
Predator GCS,c2,5000000.00
LD-10,missile,550000.00
P_27P,missile,108000.00
R-27R (AA-10 Alamo-A),missile,108000.00
R-27R (AA-10 Alamo-B),missile,118000.00
R-27T (AA-10 Alamo-B),missile,118000.00
R-60M (AA-8 Aphid-B),missile,101560.03
R-73 (AA-11 Archer),missile,181276.14
R-77 (AA-12 Adder),missile,181729.48
R550 Magic II,missile,27450.00
Rb 15F,missile,1000000.00
RBK-250,bomb,14000.00
RBK-500,bomb,20000.00
RBK-500 AO,bomb,20000.00
RLS_19J6,ads,30000000.00
S_75M_Volhov,ads,40000.00
S-3B Viking,aircraft,142348600.41
S-8,rocket,20000.00
S-8OFP2,rocket,20000.00
S-8TsM,rocket,20000.00
S-13,rocket,25000.00
S-24,rocket,27500.00
S-25L,rocket,30000.00
S_25L,rocket,30000.00
S-60,aaa,25000.00
SA 342L Gazelle,helo,13000000.00
SA-11 Gadfly (CC),ads,40000.00
SA-11 Gadfly (LN),ads,4000000.00
SA-11 Gadfly (SR),ads,5800000.00
SA-13 Gopher,ads,100000.00
SA-15 Gauntlet,ads,25000000.00
SA-18 Grouse,ads,17000.00
SA-19 Grison,ads,16000000.00
SA-2 Guideline (Fan Song E TR),ads,4000000.00
SA-2 Guideline (LN),ads,40000.00
SA-3 Goa (LN),ads,40000.00
SA-3 Goa (SR),ads,4000000.00
SA-3 Goa (TR Low Blow),ads,4000000.00
SA-5 Gammon (TR),ads,30000000.00
SA-6 Gainful (STR),ads,10000000.00
SA-6 Gainful (LN),ads,40000.00
SA-8 Gecko,ads,10000000.00
SA-9 Gaskin,ads,80000.00
SA-10 Grumble (SR),ads,60000000.00
SA-10 Grumble (TR),ads,60000000.00
SA-10 Grumble (CP),ads,30000000.00
SA-10 Grumble (LN),ads,1000000.00
SA2V755,missile,50000.00
SA3M9M,missile,50000.00
SA9M33,missile,40000.00
SA9M330,missile,40000.00
SA9M333,missile,40000.00
SA9M311,missile,5000.00
SA9M38M1,missile,23000.00
SAB_100,bomb,14000.00
SAB_100 Bomblets,bomb,0.00
SAU Akatsia,tank,3000000.00
SAU Msta,spg,3000000.00
Scud_B,vehicle,1000000.00
SD-10,missile,550000.00
Silkworm_SR,antiship,500000.00
SINGLE_HELIPAD,building,15000.00
SKP-11,vehicle,40000.00
SH-60B Seahawk,helo,31811353.08
SM_2,missile,821000000.00
SpeedBoat,boat,20000.00
Super 530D,missile,157520.00
SVIR,rocket,375000.00
Infantry AK Ins,human,710.00
Infantry AK,human,710.00
Infantry AK ver2,human,710.00
Infantry AK ver3,human,710.00
S-200_Launcher,ads,1000000.00
Sandbox,misc,60.00
SCUD,missile,1000000.00
Soldier M4,human,710.00
Soldier M249,human,4097.00
Soldier RPG,human,2010.00
Soldier M4 GRG,human,20010.00
Soldier AK,human,710.00
Su-17M4 Fitter-K,aircraft,10000000.00
Su-24M Fencer-D,aircraft,40358411.21
Su-24MR Fencer-E,aircraft,40358411.21
Su-25 Frogfoot,aircraft,11000000.00
Su-25T Frogfoot,aircraft,11000000.00
Su-27 Flanker,aircraft,30000000.00
Su-30 Flanker-C,aircraft,42452873.33
Su-33 Flanker-D,aircraft,42452873.33
Su-34 Fullback,aircraft,36000000.00
T-55,tank,0.00
T-72B,tank,500000.00
T-90,tank,4880107.66
TEL Scud-B,vehicle,1000000.00
Tigr_233036,vehicle,233000.00
Trolley bus,vehicle,200000.00
Tu-16 Badger,bomber,17850666.67
Tu-22M3 Backfire-C,bomber,500000000.00
UH-1H Huey,helo,4700000.00
UH-60A Black Hawk,helo,24113232.05
UAZ-469,vehicle,10000.00
Ural-375,vehicle,10000.00
Ural-4320,vehicle,30000.00
VAZ Car,vehicle,6286.00
weapons.bombs.CBU_97,bomb,716915.07
weapons.bombs.CBU_97 Bomblets,bomb,0.00
weapons.bombs.CBU_105,bomb,716915.07
weapons.bombs.CBU_105 Bomblets,bomb,0.00
weapons.bombs.GBU_10,bomb,21946.00
GBU-10 Paveway II,bomb,21946.00
weapons.bombs.GBU_16,bomb,21896.00
weapons.bombs.GBU_31,bomb,18000.00
weapons.bombs.GBU_54_V_1B,bomb,35000.00
weapons.nurs.C_13,rocket,20000.00
weapons.missiles.AGM_154A,bomb,282000.00
weapons.missiles.AGM_154A.client.launcher.cluster,bomb,0.00
weapons.missiles.AGR_20_M282,rocket,22000.00
weapons.missiles.AGR_20A,rocket,22000.00
weapons.missiles.Kh25MP_PRGS1VP,missile,200000.00
weapons.missiles.P_9M117,missile,30000.00
weapons.missiles.REFLEX,rocket,37500.00
weapons.missiles.X_58,missile,284000.00
weapons.shells.5_45x39,bullet,0.20
weapons.shells.7_62x51,bullet,0.64
weapons.shells.7_62x54,bullet,0.60
weapons.shells.20x110mm AP-I,bullet,50.00
weapons.shells.20x110mm HE-I,bullet,50.00
weapons.shells.20x110mm AP-T,bullet,50.00
weapons.shells.2A7_23_AP,bullet,50.00
weapons.shells.2A7_23_HE,bullet,50.00
weapons.shells.GSH_23_AP,bullet,50.00
weapons.shells.GSH_23_HE,bullet,50.00
weapons.shells.2A38_30_HE,bullet,136.70
weapons.shells.2A42_30_HE,bullet,136.70
weapons.shells.2A42_30_AP,bullet,136.70
weapons.shells.2A38_30_AP,bullet,136.70
weapons.shells.GSh_30_2K_HE,bullet,136.70
weapons.shells.GSh_30_2K_AP,bullet,136.70
weapons.shells.GSh_30_2K_HE_Tr,bullet,136.70
weapons.shells.GSH301_30_AP,bullet,136.70
weapons.shells.DEFA554_30_HE,bullet,136.70
weapons.shells.2A28_73,bullet,250.00
weapons.shells.2A46M_125_AP,bullet,1250.00
weapons.shells.2A46M_125_HE,bullet,1250.00
weapons.shells.2A64_152,bullet,1500.00
weapons.shells.2A33_152,bullet,1500.00
weapons.shells.AK630_30_AP,bullet,130.00
weapons.shells.AK630_30_HE,bullet,130.00
weapons.shells.Flak18_Sprgr_39,bullet,1250.00
weapons.shells.KPVT_14_5_T,bullet,50.00
weapons.shells.M2_12_7_T,bullet,4.00
weapons.shells.M53_APT_RED,bullet,27.00
weapons.shells.M56A3_HE_RED,bullet,27.00
weapons.shells.M61_20_HE,bullet,27.00
weapons.shells.M61_20_PGU28,bullet,27.00
weapons.shells.M61_20_AP,bullet,27.00
weapons.shells.M68_105_AP,bullet,1000.00
weapons.shells.M68_105_HE,bullet,1000.00
weapons.shells.M134_7_62_T,bullet,0.42
weapons.shells.M256_120_HE,bullet,4000.00
weapons.shells.GAU8_30_AP,bullet,136.70
weapons.shells.GAU8_30_HE,bullet,136.70
weapons.shells.PGU32_SAPHEI_T,bullet,25.00
weapons.shells.53-UOR-281U,bullet,250.00
weapons.shells.53-UBR-281U,bullet,250.00
weapons.shells.PKT_7_62_T,bullet,0.60
weapons.shells.PKT_7_62,bullet,0.60
weapons.shells.UOF_412_100HE,bullet,1000.00
weapons.shells.UOF412_100HE,bullet,1000.00
weapons.shells.Utes_12_7x108_T,bullet,1000.00
weapons.shells.YakB_12_7,bullet,50.00
X_25ML,missile,8000.00
X_25MP,missile,8000.00
X_65,missile,1000000.00
Yak-40,aircraft,100000.00
ZIL-131 APA-80,vehicle,15000.00
ZIL-131 KUNG,vehicle,15000.00
ZIL-135,vehicle,17122.95
ZU-23 Insurgent,ads,50000.00
ZU-23-2,ads,50000.00
ZU-23-2 (Ural-375),ads,60000.00
ZSU-23-4 Shilka,ads,100000.00
ZSU_57_2,ads,80000.00
